{
  "name":"Spadassin",
  "weapons":["Sword","Naginata"],
  "armors":["Leather"],
  "anim":{
    "idle":  ["spadassin.png", [80,80,80,80]],
    "right": ["spadassinright.png", [20,20,20,20]],
    "down":  ["spadassin.png",[20,20,20,20]]
  },
  "description":"A Spadassin is a generic term for a warrior proficient with long swords and light armor.",
  "growth": [
    {"lid":"Sword","rank":"A", "type":"Line"},
    {"lid":"Light","rank":"B", "type":"Line"},
    {"lid":"Light","rank":"C", "type":"Fixd"}
  ],
  "specialization":[
    {"Warrior":"Light"},
    {"Expert":"None"}
  ]
}